…
We can confirm that Spain has the highest conversion rates, note : the NAs are the missing users we saw above

On a high level, checking conversion rate by country and test group, removing spain and NAs

``` r
by_countryAndGroup <- totaldata %>% 
              filter(country != 'Spain' & !is.na(country)) %>%
              group_by(country, test) %>% 
              summarize(conversionRate = mean(conversion)) %>%
              arrange(desc(conversionRate))

by_countryAndGroup
```

    ## Source: local data frame [32 x 3]
    ## Groups: country [16]
    ## 
    ##        country  test conversionRate
    ##         <fctr> <int>          <dbl>
    ## 1   Costa Rica     1     0.05473764
    ## 2    Nicaragua     1     0.05417676
    ## 3  El Salvador     0     0.05355404
    ## 4    Nicaragua     0     0.05264697
    ## 5   Costa Rica     0     0.05225564
    ## 6     Colombia     0     0.05208949
    ## 7        Chile     1     0.05129502
    ## 8       Mexico     1     0.05118631
    ## 9     Honduras     0     0.05090576
    ## 10   Guatemala     0     0.05064288
    ## # ... with 22 more rows
…
